PICTURE res1 media/PIC1.jpg
SOUND res2 media/SND2.ogg
PICTURE res3 media/PIC3.jpg
PICTURE res4 media/PIC4.jpg
PICTURE res5 media/PIC5.jpg
PICTURE res6 media/PIC6.png
PICTURE res7 media/PIC7.png
PICTURE res8 media/PIC8.png
PICTURE res9 media/PIC9.jpg
PICTURE res10 media/PIC10.jpg
PICTURE res11 media/PIC11.png
PICTURE res12 media/PIC12.png
PICTURE res14 media/PIC14.jpg
PICTURE res16 media/PIC16.jpg
PICTURE res17 media/PIC17.png
PICTURE res18 media/PIC18.png
PICTURE res19 media/PIC19.jpg
PICTURE res20 media/PIC20.png
PICTURE res22 media/PIC22.png
PICTURE res23 media/PIC23.jpg
PICTURE res25 media/PIC25.png
PICTURE res26 media/PIC26.jpg
PICTURE res27 media/PIC27.jpg
PICTURE res28 media/PIC28.jpg
PICTURE res29 media/PIC29.jpg
PICTURE res30 media/PIC30.jpg
PICTURE res31 media/PIC31.jpg
PICTURE res32 media/PIC32.jpg
PICTURE res33 media/PIC33.png
PICTURE res34 media/PIC34.png
PICTURE res36 media/PIC36.png
PICTURE res50 media/PIC50.png
PICTURE res51 media/PIC51.jpg
PICTURE res54 media/PIC54.jpg
PICTURE res56 media/PIC56.jpg
PICTURE res58 media/PIC58.png
PICTURE res59 media/PIC59.jpg

SOUND res1251 media/SND1251.ogg
SOUND res1252 media/SND1252.ogg
SOUND res1256 media/SND1256.ogg
SOUND res1257 media/SND1257.ogg
SOUND res1258 media/SND1258.ogg
SOUND res1259 media/SND1259.ogg

PICTURE res3130 media/PIC3130.png
PICTURE res3131 media/PIC3131.png
PICTURE res3136 media/PIC3136.jpg
PICTURE res3137 media/PIC3137.jpg
PICTURE res3138 media/PIC3138.jpg
PICTURE res3139 media/PIC3139.jpg
PICTURE res3140 media/PIC3140.jpg
PICTURE res3141 media/PIC3141.jpg
PICTURE res3142 media/PIC3142.jpg
PICTURE res3143 media/PIC3143.jpg
PICTURE res3144 media/PIC3144.jpg
PICTURE res3145 media/PIC3145.png
PICTURE res3147 media/PIC3147.jpg
PICTURE res3148 media/PIC3148.jpg
PICTURE res3149 media/PIC3149.jpg
PICTURE res3150 media/PIC3150.png
PICTURE res3151 media/PIC3151.png
PICTURE res3152 media/PIC3152.jpg
PICTURE res3153 media/PIC3153.jpg
PICTURE res3154 media/PIC3154.png
PICTURE res3701 media/PIC3701.jpg
PICTURE res3702 media/PIC3702.jpg
PICTURE res3703 media/PIC3703.jpg
PICTURE res3704 media/PIC3704.jpg
PICTURE res3705 media/PIC3705.jpg
PICTURE res3706 media/PIC3706.jpg
PICTURE res3707 media/PIC3707.jpg
PICTURE res3708 media/PIC3708.jpg
PICTURE res3709 media/PIC3709.jpg
PICTURE res3710 media/PIC3710.jpg
PICTURE res3711 media/PIC3711.jpg
PICTURE res3712 media/PIC3712.jpg
PICTURE res3714 media/PIC3714.png
PICTURE res3716 media/PIC3716.png

SOUND res81 media/SND81.ogg
SOUND res83 media/SND83.ogg
SOUND res3790 media/SND3790.ogg
SOUND res3190 media/SND3190.ogg
SOUND res3191 media/SND3191.ogg
SOUND res84 media/SND84.ogg
SOUND res1728 media/SND1728.ogg

PICTURE res1721 media/PIC1721.jpg
PICTURE res1722 media/PIC1722.jpg
PICTURE res1723 media/PIC1723.jpg
PICTURE res1724 media/PIC1724.jpg
PICTURE res100 media/PIC100.png
PICTURE res101 media/PIC101.png
PICTURE res110 media/PIC110.png
PICTURE res111 media/PIC111.png
PICTURE res112 media/PIC112.png
PICTURE res115 media/PIC115.jpg
PICTURE res116 media/PIC116.png
PICTURE res120 media/PIC120.png
PICTURE res9001 media/PIC9001.jpg
PICTURE res9003 media/PIC9003.jpg

SOUND res200 media/SND200.ogg